******Starting Class 2023-12-18
Starting Read: Class Data Files
Read Complete
# A tibble: 60 × 5
   ManagerID Group       PreTrainingScore PostTrainingScore OverallScore
       <dbl> <chr+lbl>              <dbl>             <dbl>        <dbl>
 1         1 A [Group A]               55                65           60
 2         2 A [Group A]               50                63           57
 3         3 A [Group A]               53                68           62
 4         4 A [Group A]               83                70           65
 5         5 A [Group A]               52                64           58
 6         6 A [Group A]               54                67           61
 7         7 A [Group A]               56                71           63
 8         8 A [Group A]               58                72           66
 9         9 A [Group A]               51                65           59
10        10 A [Group A]               55                69           62
# ℹ 50 more rows
…
