…
Cohen d was
        t 
0.5367834 
Standard Deviation for Motivation was
[1] 3.004701
Standard Deviation for Commitment was
[1] 2.929102
# A tibble: 64 × 4
   Employee_Type Gender Measurement value
           <dbl>  <dbl> <chr>       <dbl>
 1             1      2 Motivation      5
 2             1      2 Commitment      4
 3             1      1 Motivation      8
 4             1      1 Commitment      5
 5             1      1 Motivation      8
 6             1      1 Commitment      5
 7             1      2 Motivation      6
 8             1      2 Commitment      6
 9             1      1 Motivation      1
10             1      1 Commitment      1
# ℹ 54 more rows
…
