Starting Book Exercises 3
Starting Read: Lesson 22-24 Data Files
Read Complete
# A tibble: 30 × 1
    KUDI
   <dbl>
 1    54
 2    65
 3    41
 4    52
 5    47
 6    51
 7    43
 8    66
 9    68
10    42
# ℹ 20 more rows
