…
5     5    61
6     6    72
Creating Line Graph
null device 
          1 
Creating Line Graph with title, custom scales, and line type
null device 
          1 
Started Lesson 17A Exercise 1 and 2
null device 
          1 
null device 
          1 
Starting Lesson 20
# A tibble: 120 × 3
   GENDER    ETHNIC       JOB               
   <dbl+lbl> <dbl+lbl>    <dbl+lbl>         
 1 1 [Men]   2 [Hispanic]  7 [Medical]      
 2 1 [Men]   2 [Hispanic]  4 [Academic]     
 3 1 [Men]   2 [Hispanic]  4 [Academic]     
 4 1 [Men]   2 [Hispanic]  9 [Military]     
 5 1 [Men]   2 [Hispanic]  1 [Clerical]     
 6 1 [Men]   2 [Hispanic]  8 [Skilled]      
 7 1 [Men]   2 [Hispanic]  5 [Professional] 
 8 1 [Men]   2 [Hispanic]  6 [Self-Employed]
 9 1 [Men]   3 [Asian]     5 [Professional] 
10 1 [Men]   3 [Asian]    10 [Unemployed]   
# ℹ 110 more rows
…
